id;organization_name;service_name;groups_name;user_id;payment_from;payment_to;created_at
1;Ergonomic e-tailers;Market;parsing;18629;2022-11-20;2022-11-21;2022-11-20
2;Dakota Dobra;Well Future Sol;paradigms;80625;2022-11-20;2022-11-20;2022-11-20
3;next-generation Kids;collaboration Home;Home Steel;28065;2022-11-21;2022-11-20;2022-11-20
4;benchmark eyeballs purple;online;solution-oriented deposit;65788;2022-11-20;2022-11-20;2022-11-20
5;yellow quantifying Pre-emptive;payment;lavender Arizona;66163;2022-11-20;2022-11-20;2022-11-20
6;Pre-emptive;protocol Avon Metal;Expanded Sleek JBOD;29505;2022-11-20;2022-11-20;2022-11-20
7;Handmade payment wireless;withdrawal;sensor installation SMTP;99056;2022-11-20;2022-11-20;2022-11-20
8;driver;1080p;users Utah;10805;2022-11-20;2022-11-21;2022-11-20
9;primary Oregon;Frozen;Quality-focused Interactions Bedfordshire;55513;2022-11-20;2022-11-20;2022-11-21
10;throughput Incredible Devolved;mobile generating;Up-sized neural generating;84406;2022-11-20;2022-11-20;2022-11-20
