{
  "applications": "*",
  "changelogDate": "20221121070133",
  "dto": "mapstruct",
  "embedded": false,
  "entityTableName": "organization",
  "fields": [
    {
      "fieldName": "name",
      "fieldType": "String",
      "fieldValidateRules": ["required", "unique"]
    },
    {
      "fieldName": "account",
      "fieldType": "Double",
      "fieldValidateRules": ["required"]
    }
  ],
  "fluentMethods": true,
  "jpaMetamodelFiltering": false,
  "name": "Organization",
  "pagination": "pagination",
  "readOnly": false,
  "relationships": [
    {
      "otherEntityName": "user",
      "relationshipName": "owner",
      "relationshipType": "many-to-one"
    },
    {
      "otherEntityName": "groups",
      "otherEntityRelationshipName": "organization",
      "relationshipName": "groups",
      "relationshipType": "one-to-many"
    }
  ],
  "service": "serviceImpl"
}
